Curso de formación
…
No lo es ya que en realidad solo deberíamos tener una variable de ingresos y la tenemos dividida en 11: todas ellas es la misma variable solo que adopta un valor diferente. ¿Cómo convertirla a tidy data?

Ejemplo: relig_income

La idea es pivotar todas las columnas de ingresos para que acaben en una sola columna llamada income, y los valores (el número de personas) en otra llamada people (por ejemplo). La tabla la haremos más larga y menos ancha así que…

relig_tidy <-
  relig_income |>
  pivot_longer(cols = "<$10k":"Don't know/refused", names_to = "income",
               values_to = "people")
relig_tidy 

# A tibble: 180 × 3
   religion income             people
   <chr>    <chr>               <dbl>
 1 Agnostic <$10k                  27
 2 Agnostic $10-20k                34
 3 Agnostic $20-30k                60
 4 Agnostic $30-40k                81
 5 Agnostic $40-50k                76
 6 Agnostic $50-75k               137
 7 Agnostic $75-100k              122
 8 Agnostic $100-150k             109
 9 Agnostic >150k                  84
10 Agnostic Don't know/refused     96
# ℹ 170 more rows

Ejemplo: relig_income

Vamos a hilar más fino: ahora mismo en la variable income en realidad tenemos dos valores, el límite inferior y el superior de la renta. Vamos a separar dicha variable e ingresos en dos, llamadas income_inf y income_sup

Código

relig_tidy |>
  # Separamos por -
  separate(income, into = c("income_inf", "income_sup"), sep = "-")

# A tibble: 180 × 4
   religion income_inf         income_sup people
   <chr>    <chr>              <chr>       <dbl>
 1 Agnostic <$10k              <NA>           27
 2 Agnostic $10                20k            34
 3 Agnostic $20                30k            60
 4 Agnostic $30                40k            81
 5 Agnostic $40                50k            76
 6 Agnostic $50                75k           137
 7 Agnostic $75                100k          122
 8 Agnostic $100               150k          109
 9 Agnostic >150k              <NA>           84
10 Agnostic Don't know/refused <NA>           96
# ℹ 170 more rows
…
Piensa ahora como podemos convertir los límites de ingresos a numéricas (eliminando símbolos, letras, etc)

Para ello usaremos el paquete {stringr}, en concreto la función str_remove_all() a la que le podemos pasar los caracteres que queremos eliminar (fíjate que $ al ser un caracter reservado en R hay que indicárselo con \\$)

Código

library(stringr)
relig_tidy$income_inf <-
  str_remove_all(relig_tidy$income_inf, "\\$|>|k")
relig_tidy$income_sup <-
  str_remove_all(relig_tidy$income_sup, "\\$|>|k")

relig_tidy

# A tibble: 180 × 4
   religion income_inf          income_sup people
   <chr>    <chr>               <chr>       <dbl>
 1 Agnostic ""                  10             27
 2 Agnostic "10"                20             34
 3 Agnostic "20"                30             60
 4 Agnostic "30"                40             81
 5 Agnostic "40"                50             76
 6 Agnostic "50"                75            137
 7 Agnostic "75"                100           122
 8 Agnostic "100"               150           109
 9 Agnostic "150"               <NA>           84
10 Agnostic "Don't now/refused" <NA>           96
# ℹ 170 more rows
…
📝 En el paquete {tidyr} contamos con el dataset who2 (dataset de la Organización Mundial de la Salud). ¿Es tidy data? ¿Por qué? Convierte a tidy data

Código

who_tidy <-
  who2 |> 
  # con values_drop_na = TRUE eliminamos los NA
  pivot_longer(cols = -(country:year), names_to = "type",
               values_to = "cases", values_drop_na = TRUE)
who_tidy

# A tibble: 76,046 × 4
   country      year type      cases
   <chr>       <dbl> <chr>     <dbl>
 1 Afghanistan  1997 sp_m_014      0
 2 Afghanistan  1997 sp_m_1524    10
 3 Afghanistan  1997 sp_m_2534     6
 4 Afghanistan  1997 sp_m_3544     3
 5 Afghanistan  1997 sp_m_4554     5
 6 Afghanistan  1997 sp_m_5564     2
 7 Afghanistan  1997 sp_m_65       0
 8 Afghanistan  1997 sp_f_014      5
 9 Afghanistan  1997 sp_f_1524    38
10 Afghanistan  1997 sp_f_2534    36
# ℹ 76,036 more rows
…
# con separate
who_tidy <-
  who_tidy |> 
  separate(col = "type", into = c("diagnosis", "sex", "age"))

# con pivot_longer
who_tidy <-
  who2 |> 
  pivot_longer(cols = -(country:year),
               names_to = c("diagnosis", "sex", "age"),
               values_to = "cases", values_drop_na = TRUE, names_sep = "_")
who_tidy

# A tibble: 76,046 × 6
   country      year diagnosis sex   age   cases
   <chr>       <dbl> <chr>     <chr> <chr> <dbl>
 1 Afghanistan  1997 sp        m     014       0
 2 Afghanistan  1997 sp        m     1524     10
 3 Afghanistan  1997 sp        m     2534      6
 4 Afghanistan  1997 sp        m     3544      3
 5 Afghanistan  1997 sp        m     4554      5
 6 Afghanistan  1997 sp        m     5564      2
 7 Afghanistan  1997 sp        m     65        0
 8 Afghanistan  1997 sp        f     014       5
 9 Afghanistan  1997 sp        f     1524     38
10 Afghanistan  1997 sp        f     2534     36
# ℹ 76,036 more rows
…
La idea es que el código sea legible, como si fuese una lista de instrucciones que al leerla nos diga de manera muy evidente lo que está haciendo.

Preprocesamiento: dplyr

Vamos a repasar con el dataset accidentes2020_data del paquete {CDR} que recopila los datos de accidentes de tráfico con víctimas y/o daños al patrimonio en la ciudad de Madrid registrados por la Policía Municipal durante 2020.

accidentes_tb <- as_tibble(CDR::accidentes2020_data)
accidentes_tb

# A tibble: 32,427 × 17
   num_expediente fecha      hora    localizacion numero distrito tipo_accidente
   <chr>          <chr>      <chr>   <chr>        <chr>  <chr>    <chr>         
 1 2019S040008    07/09/2020 23:00:… CALL. SAN M… 38     CIUDAD … Choque contra…
 2 2019S040008    07/09/2020 23:00:… CALL. SAN M… 38     CIUDAD … Choque contra…
 3 2020S000001    01/01/2020 1:15:00 AVDA. CANIL… 1      SAN BLA… Colisión fron…
 4 2020S000001    01/01/2020 1:15:00 AVDA. CANIL… 1      SAN BLA… Colisión fron…
 5 2020S000002    01/01/2020 1:20:00 CALL. SILVA… 31     HORTALE… Choque contra…
 6 2020S000002    01/01/2020 1:20:00 CALL. SILVA… 31     HORTALE… Choque contra…
 7 2020S000003    01/01/2020 2:00:00 CALL. BRAVO… 1      CHAMBERÍ Alcance       
 8 2020S000003    01/01/2020 2:00:00 CALL. BRAVO… 1      CHAMBERÍ Alcance       
 9 2020S000003    01/01/2020 2:00:00 CALL. BRAVO… 1      CHAMBERÍ Alcance       
10 2020S000004    01/01/2020 1:00:00 CALL. MANDA… 5      CIUDAD … Choque contra…
# ℹ 32,417 more rows
# ℹ 10 more variables: estado_meteorológico <chr>, tipo_vehiculo <chr>,
#   tipo_persona <chr>, rango_edad <chr>, sexo <chr>, lesividad <chr>,
#   coordenada_x_utm <dbl>, coordenada_y_utm <dbl>, positiva_alcohol <chr>,
#   positiva_droga <chr>
…
Aleatorio simple (slice_sample())

Aleatorio estratificado (group_by() + slice_sample())

Filtrar filas: filter()

El muestreo más simple es cuando filtramos registros en base a alguna condición lógica: con filter() se seleccionarán solo individuos que cumplan ciertas condiciones

¿Cuáles son los accidentes que se produjeron en Carabanchel?

library(dplyr)
accidentes_tb |> 
  filter(distrito == "CARABANCHEL")

# A tibble: 2,076 × 17
   num_expediente fecha      hora    localizacion numero distrito tipo_accidente
   <chr>          <chr>      <chr>   <chr>        <chr>  <chr>    <chr>         
 1 2020S000006    01/01/2020 5:05:00 CALL. EUGEN… 60     CARABAN… Colisión late…
 2 2020S000006    01/01/2020 5:05:00 CALL. EUGEN… 60     CARABAN… Colisión late…
 3 2020S000006    01/01/2020 5:05:00 CALL. EUGEN… 60     CARABAN… Colisión late…
 4 2020S000006    01/01/2020 5:05:00 CALL. EUGEN… 60     CARABAN… Colisión late…
 5 2020S000020    01/01/2020 9:15:00 CALL. PARAD… 27     CARABAN… Colisión fron…
 6 2020S000020    01/01/2020 9:15:00 CALL. PARAD… 27     CARABAN… Colisión fron…
 7 2020S000020    01/01/2020 9:15:00 CALL. PARAD… 27     CARABAN… Colisión fron…
 8 2020S000035    01/01/2020 19:30:… CALL. ANTON… 3      CARABAN… Colisión fron…
 9 2020S000035    01/01/2020 19:30:… CALL. ANTON… 3      CARABAN… Colisión fron…
10 2020S000078    02/01/2020 19:30:… AVDA. CARAB… 154    CARABAN… Atropello a p…
# ℹ 2,066 more rows
# ℹ 10 more variables: estado_meteorológico <chr>, tipo_vehiculo <chr>,
#   tipo_persona <chr>, rango_edad <chr>, sexo <chr>, lesividad <chr>,
#   coordenada_x_utm <dbl>, coordenada_y_utm <dbl>, positiva_alcohol <chr>,
#   positiva_droga <chr>

Filtrar filas: filter()

¿Cuáles fueron los accidentes ocurridos el 31 de diciembre?

library(lubridate)
accidentes_tb |> 
  filter(as_date(fecha, format = "%d/%m/%Y") == "2020/12/31")

# A tibble: 122 × 17
   num_expediente fecha      hora    localizacion numero distrito tipo_accidente
   <chr>          <chr>      <chr>   <chr>        <chr>  <chr>    <chr>         
 1 2020S019461    31/12/2020 0:50:00 CALL. DOCTO… 197    RETIRO   Caída         
 2 2020S019465    31/12/2020 1:15:00 AVDA. PRINC… 1      USERA    Alcance       
 3 2020S019465    31/12/2020 1:15:00 AVDA. PRINC… 1      USERA    Alcance       
 4 2020S019465    31/12/2020 1:15:00 AVDA. PRINC… 1      USERA    Alcance       
 5 2020S019466    31/12/2020 2:55:00 CALL. JORGE… 83     SALAMAN… Caída         
 6 2020S019477    31/12/2020 11:25:… CALL. VALLE… 106    CHAMBERÍ Colisión fron…
 7 2020S019477    31/12/2020 11:25:… CALL. VALLE… 106    CHAMBERÍ Colisión fron…
 8 2020S019481    31/12/2020 13:20:… CALL. MATIL… 27     CARABAN… Colisión fron…
 9 2020S019481    31/12/2020 13:20:… CALL. MATIL… 27     CARABAN… Colisión fron…
10 2020S019483    31/12/2020 13:20:… AVDA. ILUST… 0      FUENCAR… Alcance       
# ℹ 112 more rows
# ℹ 10 more variables: estado_meteorológico <chr>, tipo_vehiculo <chr>,
#   tipo_persona <chr>, rango_edad <chr>, sexo <chr>, lesividad <chr>,
#   coordenada_x_utm <dbl>, coordenada_y_utm <dbl>, positiva_alcohol <chr>,
#   positiva_droga <chr>

Filtrar filas: filter()

¿Cuáles fueron los accidentes ocurridos en diciembre en el que hay mujeres conductoras involucradas?

accidentes_tb |> 
  filter(month(as_date(fecha, format = "%d/%m/%Y")) == 12 &
           tipo_persona == "Conductor" & sexo == "Mujer")

# A tibble: 653 × 17
   num_expediente fecha      hora    localizacion numero distrito tipo_accidente
   <chr>          <chr>      <chr>   <chr>        <chr>  <chr>    <chr>         
 1 2020S017403    01/12/2020 9:40:00 CALL. CARTA… 88     SALAMAN… Colisión múlt…
 2 2020S017423    01/12/2020 15:05:… CALL. JUAN … 61     SALAMAN… Alcance       
 3 2020S017437    01/12/2020 15:30:… CTRA. VILLA… 269    VILLA D… Alcance       
 4 2020S017441    01/12/2020 16:10:… AUTOV. M-30… +0080… MORATAL… Alcance       
 5 2020S017441    01/12/2020 16:10:… AUTOV. M-30… +0080… MORATAL… Alcance       
 6 2020S017445    01/12/2020 19:39:… CALL. ROBER… 1D     SALAMAN… Atropello a p…
 7 2020S017446    01/12/2020 15:40:… AVDA. MEDIT… 50     RETIRO   Colisión late…
 8 2020S017448    01/12/2020 18:15:… CALL. GOYA,… 129    SALAMAN… Choque contra…
 9 2020S017454    01/12/2020 21:43:… AUTOV. M-30… +0090… RETIRO   Alcance       
10 2020S017455    01/12/2020 23:30:… AVDA. ENTRE… 2      PUENTE … Colisión fron…
# ℹ 643 more rows
# ℹ 10 more variables: estado_meteorológico <chr>, tipo_vehiculo <chr>,
#   tipo_persona <chr>, rango_edad <chr>, sexo <chr>, lesividad <chr>,
#   coordenada_x_utm <dbl>, coordenada_y_utm <dbl>, positiva_alcohol <chr>,
#   positiva_droga <chr>

Filtrar filas: filter()

¿Cuáles fueron los accidentes cuando hubo granizo, lluvia (intensa o débil) o nieve?

accidentes_tb |> 
  filter(estado_meteorológico %in%
           c("Granizando", "LLuvia intensa", "Lluvia débil", "Nevando"))

# A tibble: 2,259 × 17
   num_expediente fecha      hora    localizacion numero distrito tipo_accidente
   <chr>          <chr>      <chr>   <chr>        <chr>  <chr>    <chr>         
 1 2020S000071    02/01/2020 17:15:… AVDA. PALOM… 60B    PUENTE … Colisión fron…
 2 2020S000071    02/01/2020 17:15:… AVDA. PALOM… 60B    PUENTE … Colisión fron…
 3 2020S000395    08/01/2020 17:30:… CTRA. VILLA… 267    VILLA D… Colisión late…
 4 2020S000395    08/01/2020 17:30:… CTRA. VILLA… 267    VILLA D… Colisión late…
 5 2020S000395    08/01/2020 17:30:… CTRA. VILLA… 267    VILLA D… Colisión late…
 6 2020S000395    08/01/2020 17:30:… CTRA. VILLA… 267    VILLA D… Colisión late…
 7 2020S001220    18/01/2020 6:55:00 PASEO. CAST… 79     TETUÁN   Atropello a p…
 8 2020S001220    18/01/2020 6:55:00 PASEO. CAST… 79     TETUÁN   Atropello a p…
 9 2020S001228    18/01/2020 8:15:00 AUTOV. A-3,… +0060… MORATAL… Solo salida d…
10 2020S001231    18/01/2020 8:50:00 AUTOV. M-30… +0300… FUENCAR… Choque contra…
# ℹ 2,249 more rows
# ℹ 10 more variables: estado_meteorológico <chr>, tipo_vehiculo <chr>,
#   tipo_persona <chr>, rango_edad <chr>, sexo <chr>, lesividad <chr>,
#   coordenada_x_utm <dbl>, coordenada_y_utm <dbl>, positiva_alcohol <chr>,
#   positiva_droga <chr>

Filtrar filas: filter()

¿Cuáles fueron los accidentes cuya lesividad se sitúa entre 1 y 3 (ambos inclusive)?

accidentes_tb |> 
  filter(between(as.numeric(lesividad), 1, 3))

# A tibble: 2,622 × 17
   num_expediente fecha      hora    localizacion numero distrito tipo_accidente
   <chr>          <chr>      <chr>   <chr>        <chr>  <chr>    <chr>         
 1 2020S000007    01/01/2020 6:13:00 CALL. BOCAN… 18     SALAMAN… Colisión fron…
 2 2020S000030    01/01/2020 16:30:… AVDA. SAN D… 2      PUENTE … Colisión fron…
 3 2020S000030    01/01/2020 16:30:… AVDA. SAN D… 2      PUENTE … Colisión fron…
 4 2020S000030    01/01/2020 16:30:… AVDA. SAN D… 2      PUENTE … Colisión fron…
 5 2020S000035    01/01/2020 19:30:… CALL. ANTON… 3      CARABAN… Colisión fron…
 6 2020S000042    02/01/2020 5:00:00 AVDA. PABLO… 110    PUENTE … Colisión fron…
 7 2020S000042    02/01/2020 5:00:00 AVDA. PABLO… 110    PUENTE … Colisión fron…
 8 2020S000043    01/01/2020 14:14:… AUTOV. M-30… +0120… PUENTE … Alcance       
 9 2020S000055    02/01/2020 12:30:… CALL. SAGAS… 32     CENTRO   Colisión late…
10 2020S000064    02/01/2020 16:35:… PASEO. PONT… 22A    ARGANZU… Colisión late…
# ℹ 2,612 more rows
# ℹ 10 more variables: estado_meteorológico <chr>, tipo_vehiculo <chr>,
#   tipo_persona <chr>, rango_edad <chr>, sexo <chr>, lesividad <chr>,
#   coordenada_x_utm <dbl>, coordenada_y_utm <dbl>, positiva_alcohol <chr>,
#   positiva_droga <chr>
…
Importante

Recuerda que dentro de filter() debe ir siempre algo que devuelva un vector de valores lógicos.

Eliminar ausentes

¿Cuáles fueron los accidentes en los que el sexo de la persona involucrada es desconocido?

Los ausentes deberían estar codificados como NA, y usar drop_na() para depurarlos, pero no siempre van a estar ya codificados así.

accidentes_tb |> 
  filter(sexo == "Desconocido")

# A tibble: 3,806 × 17
   num_expediente fecha      hora    localizacion numero distrito tipo_accidente
   <chr>          <chr>      <chr>   <chr>        <chr>  <chr>    <chr>         
 1 2020S000004    01/01/2020 1:00:00 CALL. MANDA… 5      CIUDAD … Choque contra…
 2 2020S000004    01/01/2020 1:00:00 CALL. MANDA… 5      CIUDAD … Choque contra…
 3 2020S000005    01/01/2020 3:30:00 CALL. TUDES… 1      CENTRO   Colisión late…
 4 2020S000012    01/01/2020 6:40:00 AVDA. MEDIT… 10     RETIRO   Alcance       
 5 2020S000021    01/01/2020 9:30:00 CALL. LUIS … 2      PUENTE … Choque contra…
 6 2020S000032    01/01/2020 14:22:… CALL. ALFON… 1      PUENTE … Colisión late…
 7 2020S000033    01/01/2020 19:45:… CALL. OLIVA… 40     CENTRO   Choque contra…
 8 2020S000035    01/01/2020 19:30:… CALL. ANTON… 3      CARABAN… Colisión fron…
 9 2020S000039    02/01/2020 2:20:00 CALL. EJE 7… 1      VILLA D… Choque contra…
10 2020S000039    02/01/2020 2:20:00 CALL. EJE 7… 1      VILLA D… Choque contra…
# ℹ 3,796 more rows
# ℹ 10 more variables: estado_meteorológico <chr>, tipo_vehiculo <chr>,
#   tipo_persona <chr>, rango_edad <chr>, sexo <chr>, lesividad <chr>,
#   coordenada_x_utm <dbl>, coordenada_y_utm <dbl>, positiva_alcohol <chr>,
#   positiva_droga <chr>
…
# otra forma:
# accidentes_tb |> 
#   slice_head(n = 7)

Rebanadas de datos: slice()

¿Cuáles fueron los primeros 100 accidentes del año (usando fecha y hora)?

accidentes_tb |> 
  slice_min(dmy_hms(paste(fecha, hora)), n = 100)

# A tibble: 100 × 17
   num_expediente fecha      hora    localizacion numero distrito tipo_accidente
   <chr>          <chr>      <chr>   <chr>        <chr>  <chr>    <chr>         
 1 2020S000004    01/01/2020 1:00:00 CALL. MANDA… 5      CIUDAD … Choque contra…
 2 2020S000004    01/01/2020 1:00:00 CALL. MANDA… 5      CIUDAD … Choque contra…
 3 2020S000004    01/01/2020 1:00:00 CALL. MANDA… 5      CIUDAD … Choque contra…
 4 2020S000014    01/01/2020 1:00:00 PLAZA. CIBE… 1      RETIRO   Colisión fron…
 5 2020S000014    01/01/2020 1:00:00 PLAZA. CIBE… 1      RETIRO   Colisión fron…
 6 2020S000001    01/01/2020 1:15:00 AVDA. CANIL… 1      SAN BLA… Colisión fron…
 7 2020S000001    01/01/2020 1:15:00 AVDA. CANIL… 1      SAN BLA… Colisión fron…
 8 2020S000002    01/01/2020 1:20:00 CALL. SILVA… 31     HORTALE… Choque contra…
 9 2020S000002    01/01/2020 1:20:00 CALL. SILVA… 31     HORTALE… Choque contra…
10 2020S000037    01/01/2020 1:55:00 AVDA. OROVI… 32     VILLAVE… Colisión fron…
# ℹ 90 more rows
# ℹ 10 more variables: estado_meteorológico <chr>, tipo_vehiculo <chr>,
#   tipo_persona <chr>, rango_edad <chr>, sexo <chr>, lesividad <chr>,
#   coordenada_x_utm <dbl>, coordenada_y_utm <dbl>, positiva_alcohol <chr>,
#   positiva_droga <chr>
…
Aleatorio: slice_sample()

El conocido como muestreo aleatorio simple se basa en seleccionar individuos aleatoriamente, de forma que cada uno tenga ciertas probabilidades de ser seleccionado. Con slice_sample(n = ...) o slice_sample(prop = ...) podemos extraer n registros aleatoriamente (a priori equiprobables).

Extrae el 10% de la muestra de manera aleatoria

accidentes_tb |> 
  slice_sample(prop = 0.1)

# A tibble: 3,242 × 17
   num_expediente fecha      hora    localizacion numero distrito tipo_accidente
   <chr>          <chr>      <chr>   <chr>        <chr>  <chr>    <chr>         
 1 2020S000739    12/01/2020 1:00:00 AVDA. RAMON… 2      CHAMART… Colisión fron…
 2 2020S009861    15/07/2020 17:15:… AVDA. ENTRE… 2      PUENTE … Choque contra…
 3 2020S006770    12/05/2020 14:45:… CALL. VIA C… 190    LATINA   Colisión fron…
 4 2020S017885    07/12/2020 19:30:… CALL. CARTA… 120    CHAMART… Colisión fron…
 5 2020S003415    13/02/2020 12:00:… CALL. SANTI… 88     FUENCAR… Alcance       
 6 2020S009186    02/07/2020 11:53:… CALL. SEGOV… 10     CENTRO   Colisión fron…
 7 2020S010597    29/07/2020 16:57:… CALL. CORRE… 10     MORATAL… Alcance       
 8 2020S012452    11/09/2020 17:30:… CALL. EDGAR… 27     TETUÁN   Choque contra…
 9 2020S008993    29/06/2020 0:23:00 CALL. BOYER… 1      VICÁLVA… Colisión late…
10 2020S018729    19/12/2020 1:57:00 AVDA. GREGO… 1      MONCLOA… Otro          
# ℹ 3,232 more rows
# ℹ 10 more variables: estado_meteorológico <chr>, tipo_vehiculo <chr>,
#   tipo_persona <chr>, rango_edad <chr>, sexo <chr>, lesividad <chr>,
#   coordenada_x_utm <dbl>, coordenada_y_utm <dbl>, positiva_alcohol <chr>,
#   positiva_droga <chr>
…
