Análisis de datos en R
…
Rows: 9486 Columns: 31
── Column specification ────────────────────────────────────────────────────────
Delimiter: ","
chr   (1): provincia_iso
dbl  (29): 0-9_H, 10-19_H, 20-29_H, 30-39_H, 40-49_H, 50-59_H, 60-69_H, 70-7...
dttm  (1): fecha

ℹ Use `spec()` to retrieve the full column specification for this data.
ℹ Specify the column types or set `show_col_types = FALSE` to quiet this message.

datos

# A tibble: 9,486 × 31
   provincia_iso fecha               `0-9_H` `10-19_H` `20-29_H` `30-39_H`
   <chr>         <dttm>                <dbl>     <dbl>     <dbl>     <dbl>
 1 A             2020-03-01 00:00:00       0         0         0         0
 2 AL            2020-03-01 00:00:00       0         0         0         0
 3 B             2020-03-01 00:00:00       0         0         0         0
 4 BA            2020-03-01 00:00:00       0         1         0         0
 5 BI            2020-03-01 00:00:00       0         0         0         0
 6 C             2020-03-01 00:00:00       0         0         0         0
 7 CA            2020-03-01 00:00:00       0         0         0         0
 8 CO            2020-03-01 00:00:00       0         0         0         0
 9 GI            2020-03-01 00:00:00       0         0         0         0
10 GR            2020-03-01 00:00:00       0         0         0         0
# ℹ 9,476 more rows
# ℹ 25 more variables: `40-49_H` <dbl>, `50-59_H` <dbl>, `60-69_H` <dbl>,
#   `70-79_H` <dbl>, `80-Inf_H` <dbl>, `NC-NC_H` <dbl>, `0-9_M` <dbl>,
#   `10-19_M` <dbl>, `20-29_M` <dbl>, `30-39_M` <dbl>, `40-49_M` <dbl>,
#   `50-59_M` <dbl>, `60-69_M` <dbl>, `70-79_M` <dbl>, `80-Inf_M` <dbl>,
#   `NC-NC_M` <dbl>, `0-9_NC` <dbl>, `10-19_NC` <dbl>, `20-29_NC` <dbl>,
#   `30-39_NC` <dbl>, `40-49_NC` <dbl>, `50-59_NC` <dbl>, `60-69_NC` <dbl>, …
…
library(dplyr)

Attaching package: 'dplyr'

The following objects are masked from 'package:stats':

    filter, lag

The following objects are masked from 'package:base':

    intersect, setdiff, setequal, union

starwars

# A tibble: 87 × 14
   name     height  mass hair_color skin_color eye_color birth_year sex   gender
   <chr>     <int> <dbl> <chr>      <chr>      <chr>          <dbl> <chr> <chr> 
 1 Luke Sk…    172    77 blond      fair       blue            19   male  mascu…
 2 C-3PO       167    75 <NA>       gold       yellow         112   none  mascu…
 3 R2-D2        96    32 <NA>       white, bl… red             33   none  mascu…
 4 Darth V…    202   136 none       white      yellow          41.9 male  mascu…
 5 Leia Or…    150    49 brown      light      brown           19   fema… femin…
 6 Owen La…    178   120 brown, gr… light      blue            52   male  mascu…
 7 Beru Wh…    165    75 brown      light      blue            47   fema… femin…
 8 R5-D4        97    32 <NA>       white, red red             NA   none  mascu…
 9 Biggs D…    183    84 black      light      brown           24   male  mascu…
10 Obi-Wan…    182    77 auburn, w… fair       blue-gray       57   male  mascu…
# ℹ 77 more rows
# ℹ 5 more variables: homeworld <chr>, species <chr>, films <list>,
#   vehicles <list>, starships <list>
…
1.4.4 Pregunta 4

Al cruce obtenido del ejercicio anterior incluye la longitud y latitud de los aeropuertos en airports, distinguiendo entre la latitud/longitud del aeropuerto en destino y en origen.

Code

flights_airlines_planes %>%
  left_join(airports %>% select(faa, lat, lon),
            by = c("origin" = "faa")) |> 
  rename(lat_origin = lat, lon_origin = lon) |> 
  left_join(airports %>% select(faa, lat, lon),
            by = c("dest" = "faa")) |> 
  rename(lat_dest = lat, lon_dest = lon)

# A tibble: 284,170 × 32
   year_flight month   day dep_time sched_dep_time dep_delay arr_time
         <int> <int> <int>    <int>          <int>     <dbl>    <int>
 1        2013     1     1      517            515         2      830
 2        2013     1     1      533            529         4      850
 3        2013     1     1      542            540         2      923
 4        2013     1     1      544            545        -1     1004
 5        2013     1     1      554            600        -6      812
 6        2013     1     1      554            558        -4      740
 7        2013     1     1      555            600        -5      913
 8        2013     1     1      557            600        -3      709
 9        2013     1     1      557            600        -3      838
10        2013     1     1      558            600        -2      849
# ℹ 284,160 more rows
# ℹ 25 more variables: sched_arr_time <int>, arr_delay <dbl>, carrier <chr>,
#   flight <int>, tailnum <chr>, origin <chr>, dest <chr>, air_time <dbl>,
#   distance <dbl>, hour <dbl>, minute <dbl>, time_hour <dttm>, name <chr>,
#   year_build_aircraft <int>, type <chr>, manufacturer <chr>, model <chr>,
#   engines <int>, seats <int>, speed <int>, engine <chr>, lat_origin <dbl>,
#   lon_origin <dbl>, lat_dest <dbl>, lon_dest <dbl>
…
Rows: 100 Columns: 8
── Column specification ────────────────────────────────────────────────────────
Delimiter: ","
chr (3): Genero, EstadoCivil, EstadoSalud
dbl (5): ID, Edad, TiempoEspera, GradoSatisfaccion, NumeroVisitas

ℹ Use `spec()` to retrieve the full column specification for this data.
ℹ Specify the column types or set `show_col_types = FALSE` to quiet this message.

datos

# A tibble: 100 × 8
      id  edad genero    estado_civil tiempo_espera grado_satisfaccion
   <dbl> <dbl> <fct>     <fct>                <dbl>              <dbl>
 1     1    60 Masculino Casado                  28                  8
 2     2    44 Femenino  Soltero                 22                  8
 3     3    43 Masculino Soltero                  8                  9
 4     4    32 Masculino Soltero                 21                  8
 5     5    66 Masculino Divorciado               7                 10
 6     6    43 Masculino Divorciado              20                  8
 7     7    54 Masculino Casado                  18                  6
 8     8    55 Masculino Soltero                 29                  6
 9     9    56 Masculino Viudo                   17                  9
10    10    34 Femenino  Casado                  34                  8
# ℹ 90 more rows
# ℹ 2 more variables: numero_visitas <dbl>, estado_salud <chr>
…
datos <- read_csv(file = "./datos/fumadores.csv")

Rows: 96 Columns: 3
── Column specification ────────────────────────────────────────────────────────
Delimiter: ","
chr (2): fumador, estado
dbl (1): id

ℹ Use `spec()` to retrieve the full column specification for this data.
ℹ Specify the column types or set `show_col_types = FALSE` to quiet this message.

datos

# A tibble: 96 × 3
      id fumador estado    
   <dbl> <chr>   <chr>     
 1     1 sí      bronquitis
 2     2 sí      bronquitis
 3     3 sí      bronquitis
 4     4 sí      bronquitis
 5     5 sí      bronquitis
 6     6 sí      bronquitis
 7     7 sí      bronquitis
 8     8 sí      bronquitis
 9     9 sí      bronquitis
10    10 sí      bronquitis
# ℹ 86 more rows
…
Rows: 100 Columns: 10
── Column specification ────────────────────────────────────────────────────────
Delimiter: ","
chr (3): Genero, UsoDrogasRecreativas, TipoDrogas
dbl (7): ID, Edad, Ansiedad, Depresion, SesionesTerapia, ActividadFisica, Ho...

ℹ Use `spec()` to retrieve the full column specification for this data.
ℹ Specify the column types or set `show_col_types = FALSE` to quiet this message.

datos

# A tibble: 100 × 10
      id  edad genero    ansiedad depresion sesiones_terapia actividad_fisica
   <dbl> <dbl> <chr>        <dbl>     <dbl>            <dbl>            <dbl>
 1     1    48 Masculino        5         5               60                6
 2     2    32 Masculino        5         6               30               NA
 3     3    68 Masculino        9        NA               32                7
 4     4    31 NoBinario        9        NA              100                5
 5     5    20 Femenino         9        NA               27                6
 6     6    59 Masculino        7         5               38                7
 7     7    67 Femenino        10        NA               49                7
 8     8    NA Femenino         6         6               55                7
 9     9    54 Femenino         6         6               55                6
10    10    69 Masculino        4         6               32                7
# ℹ 90 more rows
# ℹ 3 more variables: horas_sueno <dbl>, uso_drogas_recreativas <chr>,
#   tipo_drogas <chr>
…
